%YAML 1.1
%TAG !u! tag:unity3d.com,2011:
--- !u!1001 &100100000
Prefab:
  m_ObjectHideFlags: 1
  serializedVersion: 2
  m_Modification:
    m_TransformParent: {fileID: 0}
    m_Modifications: []
    m_RemovedComponents: []
  m_SourcePrefab: {fileID: 0}
  m_RootGameObject: {fileID: 1093038651668322}
  m_IsPrefabAsset: 1
--- !u!1 &1093038651668322
GameObject:
  m_ObjectHideFlags: 0
  m_CorrespondingSourceObject: {fileID: 0}
  m_PrefabInternal: {fileID: 100100000}
  serializedVersion: 6
  m_Component:
  - component: {fileID: 4516383511422434}
  - component: {fileID: 114462757951401454}
  m_Layer: 0
  m_Name: Spawner
  m_TagString: Untagged
  m_Icon: {fileID: 0}
  m_NavMeshLayer: 0
  m_StaticEditorFlags: 0
  m_IsActive: 1
--- !u!4 &4516383511422434
Transform:
  m_ObjectHideFlags: 1
  m_CorrespondingSourceObject: {fileID: 0}
  m_PrefabInternal: {fileID: 100100000}
  m_GameObject: {fileID: 1093038651668322}
  m_LocalRotation: {x: 0, y: 0, z: 0, w: 1}
  m_LocalPosition: {x: 0, y: 0, z: 0}
  m_LocalScale: {x: 1, y: 1, z: 1}
  m_Children: []
  m_Father: {fileID: 0}
  m_RootOrder: 0
  m_LocalEulerAnglesHint: {x: 0, y: 0, z: 0}
--- !u!114 &114462757951401454
MonoBehaviour:
  m_ObjectHideFlags: 1
  m_CorrespondingSourceObject: {fileID: 0}
  m_PrefabInternal: {fileID: 100100000}
  m_GameObject: {fileID: 1093038651668322}
  m_Enabled: 1
  m_EditorHideFlags: 0
  m_Script: {fileID: 11500000, guid: 24c77c1ccf993d544a5c05b69308ad36, type: 3}
  m_Name: 
  m_EditorClassIdentifier: 
  direction: {fileID: 4516383511422434}
  tilePrefabs:
  - {fileID: 1058703176229894, guid: 50d1e5366a21d4b7fb85ac9a4082dc8a, type: 2}
  - {fileID: 1106889001349772, guid: ae92e1b95b3e6446d8465315fd57d582, type: 2}
  - {fileID: 1871209664468898, guid: 1365ce74fdb2e4b5fb250d487f466688, type: 2}
  - {fileID: 1454609873404826, guid: 0e21d9943b732408da6a1c9601dce489, type: 2}
  - {fileID: 1538350557565080, guid: 134eac302db44410d855b59695ba1cc3, type: 2}
  - {fileID: 1823126545832398, guid: 5a0f1b2a2370d426aa3344f669b90546, type: 2}
  - {fileID: 1575468866734150, guid: 352938b5bdd0f4571ae262f0ec63f1ff, type: 2}
  tileSize: 10
  prespawnCount: 5
  distance: 40
  tracker: {fileID: 0}
